\babel@toc {italian}{}
\babel@toc {italian}{}
\beamer@sectionintoc {1}{Cartesio: metodo}{3}{0}{1}
\beamer@sectionintoc {2}{Cartesio: dubbio}{28}{0}{2}
\beamer@sectionintoc {3}{Cartesio: Dio}{40}{0}{3}
\beamer@sectionintoc {4}{Pascal}{60}{0}{4}
\beamer@sectionintoc {5}{Spinoza}{89}{0}{5}
