\relax 
\providecommand\hyper@newdestlabel[2]{}
\providecommand\HyperFirstAtBeginDocument{\AtBeginDocument}
\HyperFirstAtBeginDocument{\ifx\hyper@anchor\@undefined
\global\let\oldcontentsline\contentsline
\gdef\contentsline#1#2#3#4{\oldcontentsline{#1}{#2}{#3}}
\global\let\oldnewlabel\newlabel
\gdef\newlabel#1#2{\newlabelxx{#1}#2}
\gdef\newlabelxx#1#2#3#4#5#6{\oldnewlabel{#1}{{#2}{#3}}}
\AtEndDocument{\ifx\hyper@anchor\@undefined
\let\contentsline\oldcontentsline
\let\newlabel\oldnewlabel
\fi}
\fi}
\global\let\hyper@last\relax 
\gdef\HyperFirstAtBeginDocument#1{#1}
\providecommand\HyField@AuxAddToFields[1]{}
\providecommand\HyField@AuxAddToCoFields[2]{}
\@nameuse{bbl@beforestart}
\babel@aux{italian}{}
\babel@aux{italian}{}
\@writefile{nav}{\headcommand {\slideentry {0}{0}{1}{1/1}{}{0}}}
\@writefile{nav}{\headcommand {\beamer@framepages {1}{1}}}
\@writefile{nav}{\headcommand {\slideentry {0}{0}{2}{2/2}{}{0}}}
\@writefile{nav}{\headcommand {\beamer@framepages {2}{2}}}
\@writefile{toc}{\beamer@sectionintoc {1}{Cartesio: metodo}{3}{0}{1}}
\@writefile{nav}{\headcommand {\beamer@sectionpages {1}{2}}}
\@writefile{nav}{\headcommand {\beamer@subsectionpages {1}{2}}}
\@writefile{nav}{\headcommand {\sectionentry {1}{Cartesio: metodo}{3}{Cartesio: metodo}{0}}}
\@writefile{nav}{\headcommand {\slideentry {1}{0}{1}{3/5}{}{0}}}
\@writefile{nav}{\headcommand {\beamer@framepages {3}{5}}}
\@writefile{nav}{\headcommand {\slideentry {1}{0}{2}{6/8}{}{0}}}
\@writefile{nav}{\headcommand {\beamer@framepages {6}{8}}}
\@writefile{nav}{\headcommand {\slideentry {1}{0}{3}{9/12}{}{0}}}
\@writefile{nav}{\headcommand {\beamer@framepages {9}{12}}}
\@writefile{nav}{\headcommand {\slideentry {1}{0}{4}{13/13}{}{0}}}
\@writefile{nav}{\headcommand {\beamer@framepages {13}{13}}}
\@writefile{nav}{\headcommand {\slideentry {1}{0}{5}{14/14}{}{0}}}
\@writefile{nav}{\headcommand {\beamer@framepages {14}{14}}}
\@writefile{nav}{\headcommand {\slideentry {1}{0}{6}{15/16}{}{0}}}
\@writefile{nav}{\headcommand {\beamer@framepages {15}{16}}}
\@writefile{nav}{\headcommand {\slideentry {1}{0}{7}{17/17}{}{0}}}
\@writefile{nav}{\headcommand {\beamer@framepages {17}{17}}}
\@writefile{nav}{\headcommand {\slideentry {1}{0}{8}{18/19}{}{0}}}
\@writefile{nav}{\headcommand {\beamer@framepages {18}{19}}}
\@writefile{nav}{\headcommand {\slideentry {1}{0}{9}{20/21}{}{0}}}
\@writefile{nav}{\headcommand {\beamer@framepages {20}{21}}}
\@writefile{nav}{\headcommand {\slideentry {1}{0}{10}{22/23}{}{0}}}
\@writefile{nav}{\headcommand {\beamer@framepages {22}{23}}}
\@writefile{nav}{\headcommand {\slideentry {1}{0}{11}{24/27}{}{0}}}
\@writefile{nav}{\headcommand {\beamer@framepages {24}{27}}}
\@writefile{toc}{\beamer@sectionintoc {2}{Cartesio: dubbio}{28}{0}{2}}
\@writefile{nav}{\headcommand {\beamer@sectionpages {3}{27}}}
\@writefile{nav}{\headcommand {\beamer@subsectionpages {3}{27}}}
\@writefile{nav}{\headcommand {\sectionentry {2}{Cartesio: dubbio}{28}{Cartesio: dubbio}{0}}}
\@writefile{nav}{\headcommand {\slideentry {2}{0}{1}{28/29}{}{0}}}
\@writefile{nav}{\headcommand {\beamer@framepages {28}{29}}}
\@writefile{nav}{\headcommand {\slideentry {2}{0}{2}{30/30}{}{0}}}
\@writefile{nav}{\headcommand {\beamer@framepages {30}{30}}}
\@writefile{nav}{\headcommand {\slideentry {2}{0}{3}{31/32}{}{0}}}
\@writefile{nav}{\headcommand {\beamer@framepages {31}{32}}}
\@writefile{nav}{\headcommand {\slideentry {2}{0}{4}{33/33}{}{0}}}
\@writefile{nav}{\headcommand {\beamer@framepages {33}{33}}}
\@writefile{nav}{\headcommand {\slideentry {2}{0}{5}{34/37}{}{0}}}
\@writefile{nav}{\headcommand {\beamer@framepages {34}{37}}}
\@writefile{nav}{\headcommand {\slideentry {2}{0}{6}{38/39}{}{0}}}
\@writefile{nav}{\headcommand {\beamer@framepages {38}{39}}}
\@writefile{toc}{\beamer@sectionintoc {3}{Cartesio: Dio}{40}{0}{3}}
\@writefile{nav}{\headcommand {\beamer@sectionpages {28}{39}}}
\@writefile{nav}{\headcommand {\beamer@subsectionpages {28}{39}}}
\@writefile{nav}{\headcommand {\sectionentry {3}{Cartesio: Dio}{40}{Cartesio: Dio}{0}}}
\@writefile{nav}{\headcommand {\slideentry {3}{0}{1}{40/42}{}{0}}}
\@writefile{nav}{\headcommand {\beamer@framepages {40}{42}}}
\@writefile{nav}{\headcommand {\slideentry {3}{0}{2}{43/44}{}{0}}}
\@writefile{nav}{\headcommand {\beamer@framepages {43}{44}}}
\@writefile{nav}{\headcommand {\slideentry {3}{0}{3}{45/48}{}{0}}}
\@writefile{nav}{\headcommand {\beamer@framepages {45}{48}}}
\@writefile{nav}{\headcommand {\slideentry {3}{0}{4}{49/50}{}{0}}}
\@writefile{nav}{\headcommand {\beamer@framepages {49}{50}}}
\@writefile{nav}{\headcommand {\slideentry {3}{0}{5}{51/53}{}{0}}}
\@writefile{nav}{\headcommand {\beamer@framepages {51}{53}}}
\@writefile{nav}{\headcommand {\slideentry {3}{0}{6}{54/59}{}{0}}}
\@writefile{nav}{\headcommand {\beamer@framepages {54}{59}}}
\@writefile{toc}{\beamer@sectionintoc {4}{Pascal}{60}{0}{4}}
\@writefile{nav}{\headcommand {\beamer@sectionpages {40}{59}}}
\@writefile{nav}{\headcommand {\beamer@subsectionpages {40}{59}}}
\@writefile{nav}{\headcommand {\sectionentry {4}{Pascal}{60}{Pascal}{0}}}
\@writefile{nav}{\headcommand {\slideentry {4}{0}{1}{60/61}{}{0}}}
\@writefile{nav}{\headcommand {\beamer@framepages {60}{61}}}
\@writefile{nav}{\headcommand {\slideentry {4}{0}{2}{62/63}{}{0}}}
\@writefile{nav}{\headcommand {\beamer@framepages {62}{63}}}
\@writefile{nav}{\headcommand {\slideentry {4}{0}{3}{64/66}{}{0}}}
\@writefile{nav}{\headcommand {\beamer@framepages {64}{66}}}
\@writefile{nav}{\headcommand {\slideentry {4}{0}{4}{67/70}{}{0}}}
\@writefile{nav}{\headcommand {\beamer@framepages {67}{70}}}
\@writefile{nav}{\headcommand {\slideentry {4}{0}{5}{71/71}{}{0}}}
\@writefile{nav}{\headcommand {\beamer@framepages {71}{71}}}
\@writefile{nav}{\headcommand {\slideentry {4}{0}{6}{72/74}{}{0}}}
\@writefile{nav}{\headcommand {\beamer@framepages {72}{74}}}
\@writefile{nav}{\headcommand {\slideentry {4}{0}{7}{75/76}{}{0}}}
\@writefile{nav}{\headcommand {\beamer@framepages {75}{76}}}
\@writefile{nav}{\headcommand {\slideentry {4}{0}{8}{77/78}{}{0}}}
\@writefile{nav}{\headcommand {\beamer@framepages {77}{78}}}
\@writefile{nav}{\headcommand {\slideentry {4}{0}{9}{79/80}{}{0}}}
\@writefile{nav}{\headcommand {\beamer@framepages {79}{80}}}
\@writefile{nav}{\headcommand {\slideentry {4}{0}{10}{81/83}{}{0}}}
\@writefile{nav}{\headcommand {\beamer@framepages {81}{83}}}
\@writefile{nav}{\headcommand {\slideentry {4}{0}{11}{84/85}{}{0}}}
\@writefile{nav}{\headcommand {\beamer@framepages {84}{85}}}
\@writefile{nav}{\headcommand {\slideentry {4}{0}{12}{86/88}{}{0}}}
\@writefile{nav}{\headcommand {\beamer@framepages {86}{88}}}
\@writefile{toc}{\beamer@sectionintoc {5}{Spinoza}{89}{0}{5}}
\@writefile{nav}{\headcommand {\beamer@sectionpages {60}{88}}}
\@writefile{nav}{\headcommand {\beamer@subsectionpages {60}{88}}}
\@writefile{nav}{\headcommand {\sectionentry {5}{Spinoza}{89}{Spinoza}{0}}}
\@writefile{nav}{\headcommand {\slideentry {5}{0}{1}{89/92}{}{0}}}
\@writefile{nav}{\headcommand {\beamer@framepages {89}{92}}}
\@writefile{nav}{\headcommand {\slideentry {5}{0}{2}{93/95}{}{0}}}
\@writefile{nav}{\headcommand {\beamer@framepages {93}{95}}}
\@writefile{nav}{\headcommand {\slideentry {5}{0}{3}{96/99}{}{0}}}
\@writefile{nav}{\headcommand {\beamer@framepages {96}{99}}}
\@writefile{nav}{\headcommand {\slideentry {5}{0}{4}{100/102}{}{0}}}
\@writefile{nav}{\headcommand {\beamer@framepages {100}{102}}}
\@writefile{nav}{\headcommand {\slideentry {5}{0}{5}{103/106}{}{0}}}
\@writefile{nav}{\headcommand {\beamer@framepages {103}{106}}}
\@writefile{nav}{\headcommand {\slideentry {5}{0}{6}{107/109}{}{0}}}
\@writefile{nav}{\headcommand {\beamer@framepages {107}{109}}}
\@writefile{nav}{\headcommand {\slideentry {5}{0}{7}{110/114}{}{0}}}
\@writefile{nav}{\headcommand {\beamer@framepages {110}{114}}}
\@writefile{nav}{\headcommand {\slideentry {5}{0}{8}{115/117}{}{0}}}
\@writefile{nav}{\headcommand {\beamer@framepages {115}{117}}}
\@writefile{nav}{\headcommand {\slideentry {5}{0}{9}{118/121}{}{0}}}
\@writefile{nav}{\headcommand {\beamer@framepages {118}{121}}}
\@writefile{nav}{\headcommand {\beamer@partpages {1}{121}}}
\@writefile{nav}{\headcommand {\beamer@subsectionpages {89}{121}}}
\@writefile{nav}{\headcommand {\beamer@sectionpages {89}{121}}}
\@writefile{nav}{\headcommand {\beamer@documentpages {121}}}
\@writefile{nav}{\headcommand {\gdef \inserttotalframenumber {46}}}
